In reality the size goes time by time 10,20,30,...

Time for loop of size 10: 1
Time for loop of size 100: 0
Time for loop of size 1000: 0
Time for loop of size 10000: 0
Time for loop of size 100000: 0
Time for loop of size 1000000: 1
Time for loop of size 10000000: 0
Time for loop of size 100000000: 0
Time for loop of size 1000000000: 0
Time for loop of size 1410065408: 1
Time for loop of size 1215752192: 1
Time for loop of size -727379968: 1
Time for loop of size 1316134912: 1
Time for loop of size 276447232: 1
Time for loop of size -1530494976: 2
Time for loop of size 1874919424: 1
Time for loop of size 1569325056: 1
Time for loop of size -1486618624: 1
Time for loop of size -1981284352: 1
Time for loop of size 1661992960: 1
Time for loop of size -559939584: 1
Time for loop of size -1304428544: 2
Time for loop of size -159383552: 1
Time for loop of size -1593835520: 1
Time for loop of size 1241513984: 2
Time for loop of size -469762048: 1
Time for loop of size -402653184: 2
Time for loop of size 268435456: 2
Time for loop of size -1610612736: 1
Time for loop of size 1073741824: 1
Time for loop of size -2147483648: 1
Time for loop of size 0: 1
Time for loop of size 0: 1
Time for loop of size 0: 1
Time for loop of size 0: 1
Time for loop of size 0: 2
Time for loop of size 0: 2
Time for loop of size 0: 2
Time for loop of size 0: 2
Time for loop of size 0: 3
Time for loop of size 0: 2
Time for loop of size 0: 0
Time for loop of size 0: 0
Time for loop of size 0: 1
Time for loop of size 0: 0
Time for loop of size 0: 0
Time for loop of size 0: 0
Time for loop of size 0: 0
Time for loop of size 0: 1
Time for loop of size 0: 0
Time for loop of size 0: 1
Time for loop of size 0: 0
Time for loop of size 0: 1
Time for loop of size 0: 0
Time for loop of size 0: 1
Time for loop of size 0: 0
Time for loop of size 0: 1
Time for loop of size 0: 0
Time for loop of size 0: 0
Time for loop of size 0: 1
Time for loop of size 0: 0
Time for loop of size 0: 1
Time for loop of size 0: 1
Time for loop of size 0: 0
Time for loop of size 0: 0
Time for loop of size 0: 1
Time for loop of size 0: 1
Time for loop of size 0: 1
Time for loop of size 0: 0
Time for loop of size 0: 1
Time for loop of size 0: 1
Time for loop of size 0: 1
Time for loop of size 0: 1
Time for loop of size 0: 1
Time for loop of size 0: 1
Time for loop of size 0: 1
Time for loop of size 0: 1
Time for loop of size 0: 1
Time for loop of size 0: 1
Time for loop of size 0: 1
Time for loop of size 0: 1
Time for loop of size 0: 1
Time for loop of size 0: 1
Time for loop of size 0: 1
Time for loop of size 0: 1
Time for loop of size 0: 1
Time for loop of size 0: 1
Time for loop of size 0: 2
Time for loop of size 0: 1
Time for loop of size 0: 1
Time for loop of size 0: 1
Time for loop of size 0: 2
Time for loop of size 0: 1
Time for loop of size 0: 2
Time for loop of size 0: 1
Time for loop of size 0: 1
Time for loop of size 0: 1
Time for loop of size 0: 1
Time for loop of size 0: 1
Time for loop of size 0: 2
Time for loop of size 0: 2
Time for loop of size 0: 2
Time for loop of size 0: 1
Time for loop of size 0: 3
Time for loop of size 0: 3
Time for loop of size 0: 2
Time for loop of size 0: 2
Time for loop of size 0: 3
Time for loop of size 0: 4
Time for loop of size 0: 4
Time for loop of size 0: 4
Time for loop of size 0: 3
Time for loop of size 0: 3
Time for loop of size 0: 2
Time for loop of size 0: 3
Time for loop of size 0: 3
Time for loop of size 0: 3
Time for loop of size 0: 4
Time for loop of size 0: 3
Time for loop of size 0: 4
Time for loop of size 0: 4
Time for loop of size 0: 4
Time for loop of size 0: 3
Time for loop of size 0: 3
Time for loop of size 0: 4
Time for loop of size 0: 4
Time for loop of size 0: 5
Time for loop of size 0: 4
Time for loop of size 0: 3
Time for loop of size 0: 4
Time for loop of size 0: 4
Time for loop of size 0: 4
Time for loop of size 0: 4
Time for loop of size 0: 5
Time for loop of size 0: 5
Time for loop of size 0: 4
Time for loop of size 0: 6
Time for loop of size 0: 5
Time for loop of size 0: 4
Time for loop of size 0: 4
Time for loop of size 0: 5
Time for loop of size 0: 7
Time for loop of size 0: 6
Time for loop of size 0: 6
Time for loop of size 0: 5
Time for loop of size 0: 5
Time for loop of size 0: 6
Time for loop of size 0: 5
Time for loop of size 0: 6
Time for loop of size 0: 5
Time for loop of size 0: 5
Time for loop of size 0: 6
Time for loop of size 0: 6
Time for loop of size 0: 5
Time for loop of size 0: 6
Time for loop of size 0: 6
Time for loop of size 0: 6
Time for loop of size 0: 8
Time for loop of size 0: 6
Time for loop of size 0: 6
Time for loop of size 0: 7
Time for loop of size 0: 6
Time for loop of size 0: 7
Time for loop of size 0: 6
Time for loop of size 0: 7
Time for loop of size 0: 7
Time for loop of size 0: 6
Time for loop of size 0: 8
Time for loop of size 0: 7
Time for loop of size 0: 8
Time for loop of size 0: 7
Time for loop of size 0: 8
Time for loop of size 0: 7
Time for loop of size 0: 7
Time for loop of size 0: 9
Time for loop of size 0: 7
Time for loop of size 0: 9
Time for loop of size 0: 8
Time for loop of size 0: 9
Time for loop of size 0: 8
Time for loop of size 0: 9
Time for loop of size 0: 9
Time for loop of size 0: 8
Time for loop of size 0: 9
Time for loop of size 0: 9
Time for loop of size 0: 9
Time for loop of size 0: 9
Time for loop of size 0: 9
Time for loop of size 0: 9
Time for loop of size 0: 10
Time for loop of size 0: 10
Time for loop of size 0: 11
Time for loop of size 0: 9
Time for loop of size 0: 10
Time for loop of size 0: 10
Time for loop of size 0: 9
Time for loop of size 0: 10
Time for loop of size 0: 11
Time for loop of size 0: 11
Time for loop of size 0: 10
Time for loop of size 0: 10
Time for loop of size 0: 10
Time for loop of size 0: 10
Time for loop of size 0: 11
Time for loop of size 0: 11
Time for loop of size 0: 10
Time for loop of size 0: 12
Time for loop of size 0: 12
Time for loop of size 0: 12
Time for loop of size 0: 11
Time for loop of size 0: 11
Time for loop of size 0: 12
Time for loop of size 0: 11
Time for loop of size 0: 12
Time for loop of size 0: 12
Time for loop of size 0: 11
Time for loop of size 0: 12
Time for loop of size 0: 12
Time for loop of size 0: 13
Time for loop of size 0: 11
Time for loop of size 0: 13
Time for loop of size 0: 13
Time for loop of size 0: 13
Time for loop of size 0: 13
Time for loop of size 0: 14
Time for loop of size 0: 14
Time for loop of size 0: 13
Time for loop of size 0: 14
Time for loop of size 0: 14
Time for loop of size 0: 14
Time for loop of size 0: 14
Time for loop of size 0: 14
Time for loop of size 0: 15
Time for loop of size 0: 13
Time for loop of size 0: 13
Time for loop of size 0: 13
Time for loop of size 0: 15
Time for loop of size 0: 14
Time for loop of size 0: 14
Time for loop of size 0: 14
Time for loop of size 0: 14
Time for loop of size 0: 15
Time for loop of size 0: 14
Time for loop of size 0: 16
Time for loop of size 0: 14
Time for loop of size 0: 14
Time for loop of size 0: 15
Time for loop of size 0: 15
Time for loop of size 0: 14
Time for loop of size 0: 15
Time for loop of size 0: 16
Time for loop of size 0: 15
Time for loop of size 0: 16
Time for loop of size 0: 16
Time for loop of size 0: 19
Time for loop of size 0: 17
Time for loop of size 0: 16
Time for loop of size 0: 17
Time for loop of size 0: 16
Time for loop of size 0: 17
Time for loop of size 0: 17
Time for loop of size 0: 17
Time for loop of size 0: 17
Time for loop of size 0: 17
Time for loop of size 0: 18
Time for loop of size 0: 17
Time for loop of size 0: 17
Time for loop of size 0: 17
Time for loop of size 0: 18
Time for loop of size 0: 19
Time for loop of size 0: 18
Time for loop of size 0: 18
Time for loop of size 0: 18
Time for loop of size 0: 19
Time for loop of size 0: 20
Time for loop of size 0: 19
Time for loop of size 0: 18
Time for loop of size 0: 20
Time for loop of size 0: 19
Time for loop of size 0: 21
Time for loop of size 0: 20
Time for loop of size 0: 19
Time for loop of size 0: 20
Time for loop of size 0: 20
Time for loop of size 0: 20
Time for loop of size 0: 20
Time for loop of size 0: 20
Time for loop of size 0: 22
Time for loop of size 0: 21
Time for loop of size 0: 21
Time for loop of size 0: 21
Time for loop of size 0: 21
Time for loop of size 0: 22
Time for loop of size 0: 22
Time for loop of size 0: 21
Time for loop of size 0: 21
Time for loop of size 0: 21
Time for loop of size 0: 23
Time for loop of size 0: 22
Time for loop of size 0: 23
Time for loop of size 0: 23
Time for loop of size 0: 22
Time for loop of size 0: 24
Time for loop of size 0: 23
Time for loop of size 0: 24
Time for loop of size 0: 23
Time for loop of size 0: 24
Time for loop of size 0: 23
Time for loop of size 0: 24
Time for loop of size 0: 25
Time for loop of size 0: 24
Time for loop of size 0: 24
Time for loop of size 0: 25
Time for loop of size 0: 26
Time for loop of size 0: 26
Time for loop of size 0: 25
Time for loop of size 0: 26
Time for loop of size 0: 25
Time for loop of size 0: 24
Time for loop of size 0: 27
Time for loop of size 0: 26
Time for loop of size 0: 25
Time for loop of size 0: 26
Time for loop of size 0: 26
Time for loop of size 0: 27
Time for loop of size 0: 27
Time for loop of size 0: 27
Time for loop of size 0: 28
Time for loop of size 0: 26
Time for loop of size 0: 28
Time for loop of size 0: 28
Time for loop of size 0: 29
Time for loop of size 0: 27
Time for loop of size 0: 30
Time for loop of size 0: 30
Time for loop of size 0: 27
Time for loop of size 0: 29
Time for loop of size 0: 31
Time for loop of size 0: 28
Time for loop of size 0: 30
Time for loop of size 0: 29
Time for loop of size 0: 30
Time for loop of size 0: 28
Time for loop of size 0: 32
Time for loop of size 0: 31
Time for loop of size 0: 30
Time for loop of size 0: 29
Time for loop of size 0: 32
Time for loop of size 0: 31
Time for loop of size 0: 30
Time for loop of size 0: 31
Time for loop of size 0: 31
Time for loop of size 0: 30
Time for loop of size 0: 34
Time for loop of size 0: 31
Time for loop of size 0: 33
Time for loop of size 0: 33
Time for loop of size 0: 32
Time for loop of size 0: 33
Time for loop of size 0: 36
Time for loop of size 0: 33
Time for loop of size 0: 33
Time for loop of size 0: 33
Time for loop of size 0: 34
Time for loop of size 0: 35
Time for loop of size 0: 33
Time for loop of size 0: 35
Time for loop of size 0: 33
Time for loop of size 0: 34
Time for loop of size 0: 36
Time for loop of size 0: 34
Time for loop of size 0: 35
Time for loop of size 0: 42
Time for loop of size 0: 36
Time for loop of size 0: 35
Time for loop of size 0: 35
Time for loop of size 0: 36
Time for loop of size 0: 36
Time for loop of size 0: 37
Time for loop of size 0: 37
Time for loop of size 0: 38
Time for loop of size 0: 39
Time for loop of size 0: 36
Time for loop of size 0: 39
Time for loop of size 0: 38
Time for loop of size 0: 38
Time for loop of size 0: 40
Time for loop of size 0: 39
Time for loop of size 0: 37
Time for loop of size 0: 38
Time for loop of size 0: 40
Time for loop of size 0: 39
Time for loop of size 0: 40
Time for loop of size 0: 40
Time for loop of size 0: 40
Time for loop of size 0: 40
Time for loop of size 0: 39
Time for loop of size 0: 41
Time for loop of size 0: 40
Time for loop of size 0: 41
Time for loop of size 0: 41
Time for loop of size 0: 40
Time for loop of size 0: 44
Time for loop of size 0: 44
Time for loop of size 0: 42
Time for loop of size 0: 43
Time for loop of size 0: 43
Time for loop of size 0: 42
Time for loop of size 0: 45
Time for loop of size 0: 41
Time for loop of size 0: 44
Time for loop of size 0: 43
Time for loop of size 0: 44
Time for loop of size 0: 43
Time for loop of size 0: 45
Time for loop of size 0: 45
Time for loop of size 0: 44
Time for loop of size 0: 43
Time for loop of size 0: 45
Time for loop of size 0: 46
Time for loop of size 0: 44
Time for loop of size 0: 44
Time for loop of size 0: 45
Time for loop of size 0: 46
Time for loop of size 0: 46
Time for loop of size 0: 46
Time for loop of size 0: 48
Time for loop of size 0: 47
Time for loop of size 0: 47
Time for loop of size 0: 47
Time for loop of size 0: 49
Time for loop of size 0: 48
Time for loop of size 0: 49
Time for loop of size 0: 47
Time for loop of size 0: 50
Time for loop of size 0: 48
Time for loop of size 0: 50
Time for loop of size 0: 50
Time for loop of size 0: 50
Time for loop of size 0: 50
Time for loop of size 0: 52
Time for loop of size 0: 49
Time for loop of size 0: 52
Time for loop of size 0: 51
Time for loop of size 0: 53
Time for loop of size 0: 51
Time for loop of size 0: 53
Time for loop of size 0: 53
Time for loop of size 0: 52
Time for loop of size 0: 52
Time for loop of size 0: 54
Time for loop of size 0: 53
Time for loop of size 0: 54
Time for loop of size 0: 56
Time for loop of size 0: 54
Time for loop of size 0: 57
Time for loop of size 0: 56
Time for loop of size 0: 55
Time for loop of size 0: 55
Time for loop of size 0: 54
Time for loop of size 0: 56
Time for loop of size 0: 56
Time for loop of size 0: 58
Time for loop of size 0: 57
Time for loop of size 0: 55
Time for loop of size 0: 57
Time for loop of size 0: 59
Time for loop of size 0: 57
Time for loop of size 0: 57
Time for loop of size 0: 56
Time for loop of size 0: 58
Time for loop of size 0: 58
Time for loop of size 0: 58
Time for loop of size 0: 59
Time for loop of size 0: 59
Time for loop of size 0: 59
Time for loop of size 0: 59
Time for loop of size 0: 59
Time for loop of size 0: 58
Time for loop of size 0: 63
Time for loop of size 0: 62
Time for loop of size 0: 61
Time for loop of size 0: 63
Time for loop of size 0: 61
Time for loop of size 0: 63
Time for loop of size 0: 61
Time for loop of size 0: 61
Time for loop of size 0: 64
Time for loop of size 0: 60
Time for loop of size 0: 61
Time for loop of size 0: 62
Time for loop of size 0: 67
Time for loop of size 0: 75
Time for loop of size 0: 64
Time for loop of size 0: 63
Time for loop of size 0: 64
Time for loop of size 0: 66
Time for loop of size 0: 64
Time for loop of size 0: 68
Time for loop of size 0: 66
Time for loop of size 0: 64
Time for loop of size 0: 66
Time for loop of size 0: 67
Time for loop of size 0: 68
Time for loop of size 0: 68
Time for loop of size 0: 69
Time for loop of size 0: 65
Time for loop of size 0: 69
Time for loop of size 0: 68
Time for loop of size 0: 67
Time for loop of size 0: 67
Time for loop of size 0: 70
Time for loop of size 0: 68
Time for loop of size 0: 67
Time for loop of size 0: 70
Time for loop of size 0: 70
Time for loop of size 0: 68
Time for loop of size 0: 70
Time for loop of size 0: 71
Time for loop of size 0: 71
Time for loop of size 0: 70
Time for loop of size 0: 71
Time for loop of size 0: 73
Time for loop of size 0: 71
Time for loop of size 0: 72
Time for loop of size 0: 73
Time for loop of size 0: 74
Time for loop of size 0: 72
Time for loop of size 0: 74
Time for loop of size 0: 72
Time for loop of size 0: 74
Time for loop of size 0: 77
Time for loop of size 0: 73
Time for loop of size 0: 77
Time for loop of size 0: 75
Time for loop of size 0: 75
Time for loop of size 0: 76
Time for loop of size 0: 75
Time for loop of size 0: 74
Time for loop of size 0: 76
Time for loop of size 0: 76
Time for loop of size 0: 76
Time for loop of size 0: 78
Time for loop of size 0: 75
Time for loop of size 0: 77
Time for loop of size 0: 79
Time for loop of size 0: 79
Time for loop of size 0: 78
Time for loop of size 0: 79
Time for loop of size 0: 78
Time for loop of size 0: 81
Time for loop of size 0: 83
Time for loop of size 0: 80
Time for loop of size 0: 82
Time for loop of size 0: 84
Time for loop of size 0: 81
Time for loop of size 0: 81
Time for loop of size 0: 83
Time for loop of size 0: 84
Time for loop of size 0: 80
Time for loop of size 0: 83
Time for loop of size 0: 84
Time for loop of size 0: 82
Time for loop of size 0: 86
Time for loop of size 0: 87
Time for loop of size 0: 82
Time for loop of size 0: 86
Time for loop of size 0: 86
Time for loop of size 0: 86
Time for loop of size 0: 84
Time for loop of size 0: 87
Time for loop of size 0: 86
Time for loop of size 0: 88
Time for loop of size 0: 88
Time for loop of size 0: 87
Time for loop of size 0: 86
Time for loop of size 0: 89
Time for loop of size 0: 87
Time for loop of size 0: 89
Time for loop of size 0: 87
Time for loop of size 0: 90
Time for loop of size 0: 90
Time for loop of size 0: 91
Time for loop of size 0: 92
Time for loop of size 0: 89
Time for loop of size 0: 90
Time for loop of size 0: 92
Time for loop of size 0: 91
Time for loop of size 0: 93
Time for loop of size 0: 93
Time for loop of size 0: 94
Time for loop of size 0: 91
Time for loop of size 0: 94
Time for loop of size 0: 89
Time for loop of size 0: 94
Time for loop of size 0: 93
Time for loop of size 0: 92
Time for loop of size 0: 95
Time for loop of size 0: 94
Time for loop of size 0: 97
Time for loop of size 0: 96
Time for loop of size 0: 97
Time for loop of size 0: 98
Time for loop of size 0: 96
Time for loop of size 0: 95
Time for loop of size 0: 98
Time for loop of size 0: 92
Time for loop of size 0: 98
Time for loop of size 0: 96
Time for loop of size 0: 98
Time for loop of size 0: 99
Time for loop of size 0: 97
Time for loop of size 0: 100
Time for loop of size 0: 98
Time for loop of size 0: 100
Time for loop of size 0: 98
Time for loop of size 0: 102
Time for loop of size 0: 102
Time for loop of size 0: 101
Time for loop of size 0: 103
Time for loop of size 0: 104
Time for loop of size 0: 104
Time for loop of size 0: 102
Time for loop of size 0: 102
Time for loop of size 0: 103
Time for loop of size 0: 103
Time for loop of size 0: 106
Time for loop of size 0: 104
Time for loop of size 0: 106
Time for loop of size 0: 107
Time for loop of size 0: 105
Time for loop of size 0: 107
Time for loop of size 0: 110
Time for loop of size 0: 109
Time for loop of size 0: 109
Time for loop of size 0: 107
Time for loop of size 0: 107
Time for loop of size 0: 112
Time for loop of size 0: 112
Time for loop of size 0: 111
Time for loop of size 0: 107
Time for loop of size 0: 111
Time for loop of size 0: 113
Time for loop of size 0: 112
Time for loop of size 0: 110
Time for loop of size 0: 109
Time for loop of size 0: 112
Time for loop of size 0: 112
Time for loop of size 0: 113
Time for loop of size 0: 114
Time for loop of size 0: 113
Time for loop of size 0: 114
Time for loop of size 0: 114
Time for loop of size 0: 114
Time for loop of size 0: 115
Time for loop of size 0: 116
Time for loop of size 0: 118
Time for loop of size 0: 118
Time for loop of size 0: 115
Time for loop of size 0: 118
Time for loop of size 0: 115
Time for loop of size 0: 117
Time for loop of size 0: 119
Time for loop of size 0: 117
Time for loop of size 0: 117
Time for loop of size 0: 119
Time for loop of size 0: 119
Time for loop of size 0: 121
Time for loop of size 0: 120
Time for loop of size 0: 123
Time for loop of size 0: 121
Time for loop of size 0: 121
Time for loop of size 0: 124
Time for loop of size 0: 117
Time for loop of size 0: 123
Time for loop of size 0: 123
Time for loop of size 0: 124
Time for loop of size 0: 120
Time for loop of size 0: 120
Time for loop of size 0: 123
Time for loop of size 0: 120
Time for loop of size 0: 125
Time for loop of size 0: 127
Time for loop of size 0: 125
Time for loop of size 0: 127
Time for loop of size 0: 124
Time for loop of size 0: 126
Time for loop of size 0: 125
Time for loop of size 0: 126
Time for loop of size 0: 127
Time for loop of size 0: 128
Time for loop of size 0: 128
Time for loop of size 0: 129
Time for loop of size 0: 128
Time for loop of size 0: 126
Time for loop of size 0: 132
Time for loop of size 0: 131
Time for loop of size 0: 129
Time for loop of size 0: 131
Time for loop of size 0: 132
Time for loop of size 0: 133
Time for loop of size 0: 132
Time for loop of size 0: 131
Time for loop of size 0: 131
Time for loop of size 0: 133
Time for loop of size 0: 133
Time for loop of size 0: 133
Time for loop of size 0: 132
Time for loop of size 0: 134
Time for loop of size 0: 134
Time for loop of size 0: 135
Time for loop of size 0: 134
Time for loop of size 0: 138
Time for loop of size 0: 135
Time for loop of size 0: 137
Time for loop of size 0: 138
Time for loop of size 0: 141
Time for loop of size 0: 139
Time for loop of size 0: 144
Time for loop of size 0: 140
Time for loop of size 0: 143
Time for loop of size 0: 140
Time for loop of size 0: 142
Time for loop of size 0: 143
Time for loop of size 0: 145
Time for loop of size 0: 143
Time for loop of size 0: 140
Time for loop of size 0: 141
Time for loop of size 0: 143
Time for loop of size 0: 141
Time for loop of size 0: 143
Time for loop of size 0: 146
Time for loop of size 0: 146
Time for loop of size 0: 144
Time for loop of size 0: 146
Time for loop of size 0: 144
Time for loop of size 0: 145
Time for loop of size 0: 144
Time for loop of size 0: 144
Time for loop of size 0: 149
Time for loop of size 0: 146
Time for loop of size 0: 146
Time for loop of size 0: 146
Time for loop of size 0: 151
Time for loop of size 0: 150
Time for loop of size 0: 151
Time for loop of size 0: 152
Time for loop of size 0: 153
Time for loop of size 0: 157
Time for loop of size 0: 150
Time for loop of size 0: 149
Time for loop of size 0: 152
Time for loop of size 0: 151
Time for loop of size 0: 152
Time for loop of size 0: 152
Time for loop of size 0: 156
Time for loop of size 0: 154
Time for loop of size 0: 155
Time for loop of size 0: 158
Time for loop of size 0: 154
Time for loop of size 0: 157
Time for loop of size 0: 159
Time for loop of size 0: 160
Time for loop of size 0: 157
Time for loop of size 0: 156
Time for loop of size 0: 158
Time for loop of size 0: 157
Time for loop of size 0: 159
Time for loop of size 0: 158
Time for loop of size 0: 158
Time for loop of size 0: 160
Time for loop of size 0: 159
Time for loop of size 0: 161
Time for loop of size 0: 160
Time for loop of size 0: 167
Time for loop of size 0: 164
Time for loop of size 0: 163
Time for loop of size 0: 164
Time for loop of size 0: 161
Time for loop of size 0: 162
Time for loop of size 0: 163
Time for loop of size 0: 161
Time for loop of size 0: 166
Time for loop of size 0: 163
Time for loop of size 0: 165
Time for loop of size 0: 167
Time for loop of size 0: 173
Time for loop of size 0: 167
Time for loop of size 0: 168
Time for loop of size 0: 168
Time for loop of size 0: 169
Time for loop of size 0: 171
Time for loop of size 0: 169
Time for loop of size 0: 170
Time for loop of size 0: 172
Time for loop of size 0: 172
Time for loop of size 0: 173
Time for loop of size 0: 169
Time for loop of size 0: 173
Time for loop of size 0: 172
Time for loop of size 0: 172
Time for loop of size 0: 173
Time for loop of size 0: 177
Time for loop of size 0: 175
Time for loop of size 0: 171
Time for loop of size 0: 175
Time for loop of size 0: 176
Time for loop of size 0: 176
Time for loop of size 0: 172
Time for loop of size 0: 179
Time for loop of size 0: 179
Time for loop of size 0: 178
Time for loop of size 0: 177
Time for loop of size 0: 177
Time for loop of size 0: 175
Time for loop of size 0: 178
Time for loop of size 0: 177
Time for loop of size 0: 182
Time for loop of size 0: 181
Time for loop of size 0: 178
Time for loop of size 0: 185
Time for loop of size 0: 180
Time for loop of size 0: 183
Time for loop of size 0: 187
Time for loop of size 0: 185
Time for loop of size 0: 179
Time for loop of size 0: 184
Time for loop of size 0: 186
Time for loop of size 0: 183
Time for loop of size 0: 188
Time for loop of size 0: 186
Time for loop of size 0: 189
Time for loop of size 0: 188
Time for loop of size 0: 185
Time for loop of size 0: 190
Time for loop of size 0: 192
Time for loop of size 0: 188
Time for loop of size 0: 191
Time for loop of size 0: 185
Time for loop of size 0: 188
Time for loop of size 0: 194
Time for loop of size 0: 194
Time for loop of size 0: 193
Time for loop of size 0: 191
Time for loop of size 0: 195
Time for loop of size 0: 198
Time for loop of size 0: 198
Time for loop of size 0: 198
Time for loop of size 0: 195
Time for loop of size 0: 195
Time for loop of size 0: 197
Time for loop of size 0: 194
Time for loop of size 0: 198
Time for loop of size 0: 194
Time for loop of size 0: 200
Time for loop of size 0: 197
Time for loop of size 0: 200
Time for loop of size 0: 199
Time for loop of size 0: 202
Time for loop of size 0: 202
Time for loop of size 0: 200
Time for loop of size 0: 199
Time for loop of size 0: 204
Time for loop of size 0: 202
Time for loop of size 0: 202
Time for loop of size 0: 203
Time for loop of size 0: 209
Time for loop of size 0: 199
Time for loop of size 0: 203
Time for loop of size 0: 208
Time for loop of size 0: 203
Time for loop of size 0: 206
Time for loop of size 0: 206
Time for loop of size 0: 208
Time for loop of size 0: 206
Time for loop of size 0: 208
Time for loop of size 0: 208
Time for loop of size 0: 207
Time for loop of size 0: 208
Time for loop of size 0: 210
Time for loop of size 0: 209
Time for loop of size 0: 209
Time for loop of size 0: 213
Time for loop of size 0: 209
Time for loop of size 0: 212
Time for loop of size 0: 209
Time for loop of size 0: 215
Time for loop of size 0: 211
Time for loop of size 0: 213
Time for loop of size 0: 215
Time for loop of size 0: 212
Time for loop of size 0: 215
Time for loop of size 0: 215
Time for loop of size 0: 215
Time for loop of size 0: 213
Time for loop of size 0: 219
Time for loop of size 0: 223
Time for loop of size 0: 220
Time for loop of size 0: 220
Time for loop of size 0: 222
Time for loop of size 0: 215
Time for loop of size 0: 220
Time for loop of size 0: 220
Time for loop of size 0: 220
Time for loop of size 0: 220
Time for loop of size 0: 220
Time for loop of size 0: 220
Time for loop of size 0: 228
Time for loop of size 0: 223
Time for loop of size 0: 221
Time for loop of size 0: 227
Time for loop of size 0: 225
Time for loop of size 0: 225
Time for loop of size 0: 226
Time for loop of size 0: 225
Time for loop of size 0: 228
Time for loop of size 0: 234
Time for loop of size 0: 229
Time for loop of size 0: 225
Time for loop of size 0: 229
Time for loop of size 0: 227
Time for loop of size 0: 228
Time for loop of size 0: 229
Time for loop of size 0: 236
Time for loop of size 0: 236
Time for loop of size 0: 231
Time for loop of size 0: 235
Time for loop of size 0: 235
Time for loop of size 0: 237
Time for loop of size 0: 233
Time for loop of size 0: 234
Time for loop of size 0: 235
Time for loop of size 0: 235
Time for loop of size 0: 236
Time for loop of size 0: 236
Time for loop of size 0: 237
Time for loop of size 0: 239
Time for loop of size 0: 240
Time for loop of size 0: 237
Time for loop of size 0: 239
Time for loop of size 0: 239
Time for loop of size 0: 242
Time for loop of size 0: 244
Time for loop of size 0: 250
Time for loop of size 0: 247
Time for loop of size 0: 242
Time for loop of size 0: 247
Time for loop of size 0: 245
Time for loop of size 0: 245
Time for loop of size 0: 247
Time for loop of size 0: 244
Time for loop of size 0: 250
Time for loop of size 0: 248
Time for loop of size 0: 249
Time for loop of size 0: 249
Time for loop of size 0: 252
Time for loop of size 0: 249
Time for loop of size 0: 251
Time for loop of size 0: 262
Time for loop of size 0: 249
Time for loop of size 0: 256
Time for loop of size 0: 254
Time for loop of size 0: 250
Time for loop of size 0: 252
Time for loop of size 0: 255
Time for loop of size 0: 253
Time for loop of size 0: 257
Time for loop of size 0: 253
Time for loop of size 0: 257
Time for loop of size 0: 258
Time for loop of size 0: 257
Time for loop of size 0: 256
Time for loop of size 0: 257
Time for loop of size 0: 256
Time for loop of size 0: 265
Time for loop of size 0: 256
Time for loop of size 0: 257
Time for loop of size 0: 263
Time for loop of size 0: 259
Time for loop of size 0: 263
Time for loop of size 0: 265
Time for loop of size 0: 257
Time for loop of size 0: 262
Time for loop of size 0: 260
Time for loop of size 0: 264
Time for loop of size 0: 261
Time for loop of size 0: 266
Time for loop of size 0: 264
Time for loop of size 0: 267
Time for loop of size 0: 266
Time for loop of size 0: 268
Time for loop of size 0: 266
Time for loop of size 0: 267
Time for loop of size 0: 270
Time for loop of size 0: 270
Time for loop of size 0: 270
Time for loop of size 0: 270
Time for loop of size 0: 272
Time for loop of size 0: 270
Time for loop of size 0: 271
Time for loop of size 0: 273
Time for loop of size 0: 268
Time for loop of size 0: 273
Time for loop of size 0: 275
Time for loop of size 0: 272
Time for loop of size 0: 273
Time for loop of size 0: 281
Time for loop of size 0: 278
Time for loop of size 0: 274
Time for loop of size 0: 281
Time for loop of size 0: 275
Time for loop of size 0: 274
Time for loop of size 0: 279
Time for loop of size 0: 282
Time for loop of size 0: 277
Time for loop of size 0: 272
Time for loop of size 0: 281
Time for loop of size 0: 281
Time for loop of size 0: 279
Time for loop of size 0: 279
Time for loop of size 0: 285
Time for loop of size 0: 281
Time for loop of size 0: 285
Time for loop of size 0: 284
Time for loop of size 0: 288
Time for loop of size 0: 282
Time for loop of size 0: 285
Time for loop of size 0: 290
Time for loop of size 0: 283
Time for loop of size 0: 290
Time for loop of size 0: 291
Time for loop of size 0: 290
Time for loop of size 0: 290
Time for loop of size 0: 290
Time for loop of size 0: 293
Time for loop of size 0: 293
Time for loop of size 0: 290
Time for loop of size 0: 291
Time for loop of size 0: 289
Time for loop of size 0: 295
Time for loop of size 0: 294
Time for loop of size 0: 294
Time for loop of size 0: 295
Time for loop of size 0: 297
Time for loop of size 0: 298
Time for loop of size 0: 296
Time for loop of size 0: 297
Time for loop of size 0: 304
Time for loop of size 0: 301
Time for loop of size 0: 299
Time for loop of size 0: 302
Time for loop of size 0: 301
Time for loop of size 0: 301
Time for loop of size 0: 301
Time for loop of size 0: 300
Time for loop of size 0: 307
Time for loop of size 0: 301
Time for loop of size 0: 302
Time for loop of size 0: 308
Time for loop of size 0: 309
Time for loop of size 0: 307
Time for loop of size 0: 312
Time for loop of size 0: 308
Time for loop of size 0: 309
Time for loop of size 0: 309
Time for loop of size 0: 310
Time for loop of size 0: 312
Time for loop of size 0: 312
Time for loop of size 0: 314
Time for loop of size 0: 312
Time for loop of size 0: 317
Time for loop of size 0: 314
Time for loop of size 0: 314
Time for loop of size 0: 311
Time for loop of size 0: 316
Time for loop of size 0: 313
Time for loop of size 0: 315
Time for loop of size 0: 316
Time for loop of size 0: 315
Time for loop of size 0: 315
Time for loop of size 0: 319
Time for loop of size 0: 319
Time for loop of size 0: 323
Time for loop of size 0: 319
Time for loop of size 0: 315
Time for loop of size 0: 315
Time for loop of size 0: 323
Time for loop of size 0: 322
Time for loop of size 0: 321
Time for loop of size 0: 322
Time for loop of size 0: 327
Time for loop of size 0: 323
Time for loop of size 0: 325
Time for loop of size 0: 326
Time for loop of size 0: 324
Time for loop of size 0: 324
Time for loop of size 0: 327
Time for loop of size 0: 328
Time for loop of size 0: 327
Time for loop of size 0: 335
Time for loop of size 0: 331
Time for loop of size 0: 331
Time for loop of size 0: 334
Time for loop of size 0: 332
Time for loop of size 0: 332
Time for loop of size 0: 334
Time for loop of size 0: 334
Time for loop of size 0: 333
Time for loop of size 0: 330
Time for loop of size 0: 335
Time for loop of size 0: 335
Time for loop of size 0: 336
Time for loop of size 0: 336
Time for loop of size 0: 335
Time for loop of size 0: 337
Time for loop of size 0: 340
Time for loop of size 0: 335
Time for loop of size 0: 338
Time for loop of size 0: 341
Time for loop of size 0: 340
Time for loop of size 0: 340
Time for loop of size 0: 343
Time for loop of size 0: 342
Time for loop of size 0: 343
Time for loop of size 0: 342
Time for loop of size 0: 343
Time for loop of size 0: 346
Time for loop of size 0: 350
Time for loop of size 0: 342
Time for loop of size 0: 346
Time for loop of size 0: 349
Time for loop of size 0: 350
Time for loop of size 0: 354
Time for loop of size 0: 352
Time for loop of size 0: 350
Time for loop of size 0: 353
Time for loop of size 0: 354
Time for loop of size 0: 354
Time for loop of size 0: 350
Time for loop of size 0: 353
Time for loop of size 0: 355
Time for loop of size 0: 358
Time for loop of size 0: 353
Time for loop of size 0: 352
Time for loop of size 0: 350
Time for loop of size 0: 363
Time for loop of size 0: 372
Time for loop of size 0: 363
Time for loop of size 0: 359
Time for loop of size 0: 360
Time for loop of size 0: 362
Time for loop of size 0: 359
Time for loop of size 0: 365
Time for loop of size 0: 365
Time for loop of size 0: 358
Time for loop of size 0: 356
Time for loop of size 0: 362
Time for loop of size 0: 368
Time for loop of size 0: 364
Time for loop of size 0: 364
Time for loop of size 0: 363
Time for loop of size 0: 369
Time for loop of size 0: 367
Time for loop of size 0: 373
Time for loop of size 0: 362
Time for loop of size 0: 372
Time for loop of size 0: 376
Time for loop of size 0: 377
Time for loop of size 0: 379
Time for loop of size 0: 366
Time for loop of size 0: 389
Time for loop of size 0: 386
Time for loop of size 0: 384
Time for loop of size 0: 379
Time for loop of size 0: 383
Time for loop of size 0: 384
Time for loop of size 0: 420
Time for loop of size 0: 384
Time for loop of size 0: 402
Time for loop of size 0: 404
Time for loop of size 0: 399
Time for loop of size 0: 391
Time for loop of size 0: 387
Time for loop of size 0: 420
Time for loop of size 0: 412
Time for loop of size 0: 397
Time for loop of size 0: 385
Time for loop of size 0: 383
Time for loop of size 0: 379
Time for loop of size 0: 396
Time for loop of size 0: 402
Time for loop of size 0: 406
Time for loop of size 0: 398
Time for loop of size 0: 383
Time for loop of size 0: 388
Time for loop of size 0: 386
Time for loop of size 0: 392
Time for loop of size 0: 391
Time for loop of size 0: 397
Time for loop of size 0: 390
Time for loop of size 0: 389
Time for loop of size 0: 390
Time for loop of size 0: 389
Time for loop of size 0: 394
Time for loop of size 0: 400
Time for loop of size 0: 394
Time for loop of size 0: 392
Time for loop of size 0: 397
Time for loop of size 0: 418
Time for loop of size 0: 440
Time for loop of size 0: 414
Time for loop of size 0: 394
Time for loop of size 0: 401
Time for loop of size 0: 402
Time for loop of size 0: 410
Time for loop of size 0: 417
Time for loop of size 0: 422
Time for loop of size 0: 413
Time for loop of size 0: 419
Time for loop of size 0: 422
Time for loop of size 0: 407
Time for loop of size 0: 409
Time for loop of size 0: 414
Time for loop of size 0: 406
Time for loop of size 0: 412
Time for loop of size 0: 411
Time for loop of size 0: 409
Time for loop of size 0: 420
Time for loop of size 0: 430
Time for loop of size 0: 429
Time for loop of size 0: 454
Time for loop of size 0: 481
Time for loop of size 0: 441
Time for loop of size 0: 456
Time for loop of size 0: 443
Time for loop of size 0: 433
Time for loop of size 0: 420
Time for loop of size 0: 425
Time for loop of size 0: 422
Time for loop of size 0: 422
Time for loop of size 0: 423
Time for loop of size 0: 422
Time for loop of size 0: 429
Time for loop of size 0: 485
Time for loop of size 0: 463
Time for loop of size 0: 459
Time for loop of size 0: 461
Time for loop of size 0: 476
Time for loop of size 0: 472
Time for loop of size 0: 431
Time for loop of size 0: 503
Time for loop of size 0: 449
Time for loop of size 0: 447
Time for loop of size 0: 434
Time for loop of size 0: 429
Time for loop of size 0: 436
Time for loop of size 0: 458
Time for loop of size 0: 465
Time for loop of size 0: 448
Time for loop of size 0: 434
Time for loop of size 0: 440
Time for loop of size 0: 467
Time for loop of size 0: 467
Time for loop of size 0: 466
Time for loop of size 0: 437
Time for loop of size 0: 436
Time for loop of size 0: 456
Time for loop of size 0: 470
Time for loop of size 0: 460
Time for loop of size 0: 450
Time for loop of size 0: 453
Time for loop of size 0: 456
Time for loop of size 0: 484
Time for loop of size 0: 467
Time for loop of size 0: 467
Time for loop of size 0: 470
Time for loop of size 0: 465
Time for loop of size 0: 462
Time for loop of size 0: 473
Time for loop of size 0: 465
Time for loop of size 0: 486
Time for loop of size 0: 465
Time for loop of size 0: 472
Time for loop of size 0: 460
Time for loop of size 0: 483
Time for loop of size 0: 466
Time for loop of size 0: 460
Time for loop of size 0: 471
Time for loop of size 0: 485
Time for loop of size 0: 461
Time for loop of size 0: 461
Time for loop of size 0: 464
Time for loop of size 0: 471
Time for loop of size 0: 476
Time for loop of size 0: 482
Time for loop of size 0: 474
Time for loop of size 0: 468
Time for loop of size 0: 474
Time for loop of size 0: 474
Time for loop of size 0: 474
Time for loop of size 0: 476
Time for loop of size 0: 463
Time for loop of size 0: 467
Time for loop of size 0: 464
Time for loop of size 0: 475
Time for loop of size 0: 465
Time for loop of size 0: 466
Time for loop of size 0: 467
Time for loop of size 0: 473
Time for loop of size 0: 471
Time for loop of size 0: 467
Time for loop of size 0: 473
Time for loop of size 0: 472
Time for loop of size 0: 465
Time for loop of size 0: 477
Time for loop of size 0: 473
Time for loop of size 0: 473
Time for loop of size 0: 476
Time for loop of size 0: 474
Time for loop of size 0: 476
Time for loop of size 0: 477
Time for loop of size 0: 472
Time for loop of size 0: 482
Time for loop of size 0: 470
Time for loop of size 0: 481
Time for loop of size 0: 481
Time for loop of size 0: 483
Time for loop of size 0: 494
Time for loop of size 0: 504
Time for loop of size 0: 494
Time for loop of size 0: 501
Time for loop of size 0: 530
Time for loop of size 0: 499
Time for loop of size 0: 493
Time for loop of size 0: 492
Time for loop of size 0: 531
Time for loop of size 0: 508
Time for loop of size 0: 506
Time for loop of size 0: 489
Time for loop of size 0: 490
Time for loop of size 0: 490
Time for loop of size 0: 489
Time for loop of size 0: 500
Time for loop of size 0: 494
Time for loop of size 0: 499
Time for loop of size 0: 498
Time for loop of size 0: 503
Time for loop of size 0: 500
Time for loop of size 0: 496
Time for loop of size 0: 502
Time for loop of size 0: 506
Time for loop of size 0: 501
Time for loop of size 0: 502
Time for loop of size 0: 501
Time for loop of size 0: 510
Time for loop of size 0: 500
Time for loop of size 0: 504
Time for loop of size 0: 507
Time for loop of size 0: 509
Time for loop of size 0: 507
Time for loop of size 0: 505
Time for loop of size 0: 505
Time for loop of size 0: 506
Time for loop of size 0: 517
Time for loop of size 0: 506
Time for loop of size 0: 514
Time for loop of size 0: 513
Time for loop of size 0: 517
Time for loop of size 0: 523
Time for loop of size 0: 514
Time for loop of size 0: 518
Time for loop of size 0: 518
Time for loop of size 0: 518
Time for loop of size 0: 513
Time for loop of size 0: 519
Time for loop of size 0: 519
Time for loop of size 0: 525
Time for loop of size 0: 521
Time for loop of size 0: 522
Time for loop of size 0: 519
Time for loop of size 0: 531
Time for loop of size 0: 518
Time for loop of size 0: 525
Time for loop of size 0: 526
Time for loop of size 0: 535
Time for loop of size 0: 519
Time for loop of size 0: 530
Time for loop of size 0: 529
Time for loop of size 0: 533
Time for loop of size 0: 534
Time for loop of size 0: 534
Time for loop of size 0: 530
Time for loop of size 0: 537
Time for loop of size 0: 538
Time for loop of size 0: 539
Time for loop of size 0: 538
Time for loop of size 0: 557
Time for loop of size 0: 547
Time for loop of size 0: 535
Time for loop of size 0: 546
Time for loop of size 0: 538
Time for loop of size 0: 546
Time for loop of size 0: 561
Time for loop of size 0: 546
Time for loop of size 0: 547
Time for loop of size 0: 544
Time for loop of size 0: 543
Time for loop of size 0: 547
Time for loop of size 0: 542
Time for loop of size 0: 545
Time for loop of size 0: 552
Time for loop of size 0: 557
Time for loop of size 0: 562
Time for loop of size 0: 553
Time for loop of size 0: 557
Time for loop of size 0: 554
Time for loop of size 0: 560
Time for loop of size 0: 557
Time for loop of size 0: 554
Time for loop of size 0: 557
Time for loop of size 0: 548
Time for loop of size 0: 556
Time for loop of size 0: 556
Time for loop of size 0: 558
Time for loop of size 0: 552
Time for loop of size 0: 552
Time for loop of size 0: 551
Time for loop of size 0: 555
Time for loop of size 0: 561
Time for loop of size 0: 562
Time for loop of size 0: 571
Time for loop of size 0: 566
Time for loop of size 0: 566
Time for loop of size 0: 566
Time for loop of size 0: 561
Time for loop of size 0: 568
Time for loop of size 0: 560
Time for loop of size 0: 573
Time for loop of size 0: 569
Time for loop of size 0: 569
Time for loop of size 0: 577
Time for loop of size 0: 574
Time for loop of size 0: 576
Time for loop of size 0: 581
Time for loop of size 0: 580
Time for loop of size 0: 581
Time for loop of size 0: 574
Time for loop of size 0: 590
Time for loop of size 0: 587
Time for loop of size 0: 575
Time for loop of size 0: 577
Time for loop of size 0: 568
Time for loop of size 0: 577
Time for loop of size 0: 577
Time for loop of size 0: 580
Time for loop of size 0: 578
Time for loop of size 0: 578
Time for loop of size 0: 584
Time for loop of size 0: 586
Time for loop of size 0: 588
Time for loop of size 0: 584
Time for loop of size 0: 592
Time for loop of size 0: 579
Time for loop of size 0: 580
Time for loop of size 0: 585
Time for loop of size 0: 582
Time for loop of size 0: 588
Time for loop of size 0: 606
Time for loop of size 0: 605
Time for loop of size 0: 599
Time for loop of size 0: 599
Time for loop of size 0: 595
Time for loop of size 0: 597
Time for loop of size 0: 596
Time for loop of size 0: 606
Time for loop of size 0: 601
Time for loop of size 0: 599
Time for loop of size 0: 594
Time for loop of size 0: 596
Time for loop of size 0: 600
Time for loop of size 0: 600
Time for loop of size 0: 601
Time for loop of size 0: 604
Time for loop of size 0: 608
Time for loop of size 0: 604
Time for loop of size 0: 609
Time for loop of size 0: 612
Time for loop of size 0: 608
Time for loop of size 0: 612
Time for loop of size 0: 645
Time for loop of size 0: 655
Time for loop of size 0: 650
Time for loop of size 0: 637
Time for loop of size 0: 640
Time for loop of size 0: 608
Time for loop of size 0: 614
Time for loop of size 0: 618
Time for loop of size 0: 628
Time for loop of size 0: 626
Time for loop of size 0: 623
Time for loop of size 0: 638
Time for loop of size 0: 656
Time for loop of size 0: 630
Time for loop of size 0: 661
Time for loop of size 0: 651
Time for loop of size 0: 643
Time for loop of size 0: 626
Time for loop of size 0: 652
Time for loop of size 0: 647
Time for loop of size 0: 629
Time for loop of size 0: 624
Time for loop of size 0: 639
Time for loop of size 0: 640
Time for loop of size 0: 634
Time for loop of size 0: 635
Time for loop of size 0: 645
Time for loop of size 0: 623
Time for loop of size 0: 640
Time for loop of size 0: 636
Time for loop of size 0: 628
Time for loop of size 0: 636
Time for loop of size 0: 635
Time for loop of size 0: 631
Time for loop of size 0: 632
Time for loop of size 0: 637
Time for loop of size 0: 645
Time for loop of size 0: 641
Time for loop of size 0: 642
Time for loop of size 0: 646
Time for loop of size 0: 640
Time for loop of size 0: 646
Time for loop of size 0: 642
Time for loop of size 0: 643
Time for loop of size 0: 641
Time for loop of size 0: 640
Time for loop of size 0: 645
Time for loop of size 0: 652
Time for loop of size 0: 654
Time for loop of size 0: 652
Time for loop of size 0: 657
Time for loop of size 0: 649
Time for loop of size 0: 654
Time for loop of size 0: 652
Time for loop of size 0: 649
Time for loop of size 0: 651
Time for loop of size 0: 657
Time for loop of size 0: 656
Time for loop of size 0: 656
Time for loop of size 0: 660
Time for loop of size 0: 652
Time for loop of size 0: 662
Time for loop of size 0: 662
Time for loop of size 0: 654
Time for loop of size 0: 661
Time for loop of size 0: 667
Time for loop of size 0: 676
Time for loop of size 0: 664
Time for loop of size 0: 664
Time for loop of size 0: 663
Time for loop of size 0: 672
Time for loop of size 0: 674
Time for loop of size 0: 663
Time for loop of size 0: 668
Time for loop of size 0: 667
Time for loop of size 0: 667
Time for loop of size 0: 664
Time for loop of size 0: 671
Time for loop of size 0: 695
Time for loop of size 0: 686
Time for loop of size 0: 672
Time for loop of size 0: 673
Time for loop of size 0: 676
Time for loop of size 0: 673
Time for loop of size 0: 671
Time for loop of size 0: 682
Time for loop of size 0: 677
Time for loop of size 0: 674
Time for loop of size 0: 690
Time for loop of size 0: 678
Time for loop of size 0: 683
Time for loop of size 0: 683
Time for loop of size 0: 689
Time for loop of size 0: 695
Time for loop of size 0: 680
Time for loop of size 0: 691
Time for loop of size 0: 689
Time for loop of size 0: 699
Time for loop of size 0: 695
Time for loop of size 0: 689
Time for loop of size 0: 695
Time for loop of size 0: 695
Time for loop of size 0: 688
Time for loop of size 0: 694
Time for loop of size 0: 702
Time for loop of size 0: 698
Time for loop of size 0: 696
Time for loop of size 0: 694
Time for loop of size 0: 709
Time for loop of size 0: 694
Time for loop of size 0: 710
Time for loop of size 0: 706
Time for loop of size 0: 706
Time for loop of size 0: 698
Time for loop of size 0: 707
Time for loop of size 0: 708
Time for loop of size 0: 702
Time for loop of size 0: 703
Time for loop of size 0: 722
Time for loop of size 0: 711
Time for loop of size 0: 702
Time for loop of size 0: 714
Time for loop of size 0: 711
Time for loop of size 0: 707
Time for loop of size 0: 713
Time for loop of size 0: 713
Time for loop of size 0: 716
Time for loop of size 0: 718
Time for loop of size 0: 708
Time for loop of size 0: 728
Time for loop of size 0: 717
Time for loop of size 0: 727
Time for loop of size 0: 726
Time for loop of size 0: 725
Time for loop of size 0: 723
Time for loop of size 0: 725
Time for loop of size 0: 726
Time for loop of size 0: 723
Time for loop of size 0: 728
Time for loop of size 0: 728
Time for loop of size 0: 729
Time for loop of size 0: 727
Time for loop of size 0: 733
Time for loop of size 0: 740
Time for loop of size 0: 733
Time for loop of size 0: 730
Time for loop of size 0: 738
Time for loop of size 0: 734
Time for loop of size 0: 742
Time for loop of size 0: 736
Time for loop of size 0: 753
Time for loop of size 0: 744
Time for loop of size 0: 740
Time for loop of size 0: 748
Time for loop of size 0: 739
Time for loop of size 0: 740
Time for loop of size 0: 746
Time for loop of size 0: 739
Time for loop of size 0: 746
Time for loop of size 0: 741
Time for loop of size 0: 742
Time for loop of size 0: 749
Time for loop of size 0: 752
Time for loop of size 0: 750
Time for loop of size 0: 772
Time for loop of size 0: 745
Time for loop of size 0: 758
Time for loop of size 0: 757
Time for loop of size 0: 750
Time for loop of size 0: 760
Time for loop of size 0: 756
Time for loop of size 0: 759
Time for loop of size 0: 765
Time for loop of size 0: 755
Time for loop of size 0: 768
Time for loop of size 0: 757
Time for loop of size 0: 760
Time for loop of size 0: 760
Time for loop of size 0: 767
Time for loop of size 0: 764
Time for loop of size 0: 760
Time for loop of size 0: 769
Time for loop of size 0: 784
Time for loop of size 0: 763
Time for loop of size 0: 769
Time for loop of size 0: 770
Time for loop of size 0: 760
Time for loop of size 0: 769
Time for loop of size 0: 782
Time for loop of size 0: 761
Time for loop of size 0: 774
Time for loop of size 0: 790
Time for loop of size 0: 802
Time for loop of size 0: 796
Time for loop of size 0: 779
Time for loop of size 0: 791
Time for loop of size 0: 785
Time for loop of size 0: 794
Time for loop of size 0: 778
Time for loop of size 0: 773
Time for loop of size 0: 772
Time for loop of size 0: 779
Time for loop of size 0: 789
Time for loop of size 0: 791
Time for loop of size 0: 791
Time for loop of size 0: 794
Time for loop of size 0: 793
Time for loop of size 0: 800
Time for loop of size 0: 793
Time for loop of size 0: 793
Time for loop of size 0: 799
Time for loop of size 0: 796
Time for loop of size 0: 792
Time for loop of size 0: 796
Time for loop of size 0: 795
Time for loop of size 0: 804
Time for loop of size 0: 795
Time for loop of size 0: 800
Time for loop of size 0: 805
Time for loop of size 0: 811
Time for loop of size 0: 799
Time for loop of size 0: 797
Time for loop of size 0: 804
Time for loop of size 0: 802
Time for loop of size 0: 803
Time for loop of size 0: 802
Time for loop of size 0: 810
Time for loop of size 0: 808
Time for loop of size 0: 824
Time for loop of size 0: 809
Time for loop of size 0: 816
Time for loop of size 0: 801
Time for loop of size 0: 812
Time for loop of size 0: 804
Time for loop of size 0: 818
Time for loop of size 0: 816
Time for loop of size 0: 818
Time for loop of size 0: 827
Time for loop of size 0: 829
Time for loop of size 0: 820
Time for loop of size 0: 823
Time for loop of size 0: 815
Time for loop of size 0: 821
Time for loop of size 0: 825
Time for loop of size 0: 820
Time for loop of size 0: 829
Time for loop of size 0: 828
Time for loop of size 0: 822
Time for loop of size 0: 840
Time for loop of size 0: 822
Time for loop of size 0: 830
Time for loop of size 0: 832
Time for loop of size 0: 827
Time for loop of size 0: 834
Time for loop of size 0: 840
Time for loop of size 0: 823
Time for loop of size 0: 852
Time for loop of size 0: 841
Time for loop of size 0: 853
Time for loop of size 0: 835
Time for loop of size 0: 838
Time for loop of size 0: 852
Time for loop of size 0: 836
Time for loop of size 0: 839
Time for loop of size 0: 842
Time for loop of size 0: 845
Time for loop of size 0: 838
Time for loop of size 0: 851
Time for loop of size 0: 852
Time for loop of size 0: 856
Time for loop of size 0: 851
Time for loop of size 0: 853
Time for loop of size 0: 861
Time for loop of size 0: 856
Time for loop of size 0: 848
Time for loop of size 0: 849
Time for loop of size 0: 866
Time for loop of size 0: 865
Time for loop of size 0: 855
Time for loop of size 0: 875
Time for loop of size 0: 855
Time for loop of size 0: 875
Time for loop of size 0: 873
Time for loop of size 0: 866
Time for loop of size 0: 862
Time for loop of size 0: 865
Time for loop of size 0: 852
Time for loop of size 0: 860
Time for loop of size 0: 860
Time for loop of size 0: 865
Time for loop of size 0: 876
Time for loop of size 0: 871
Time for loop of size 0: 870
Time for loop of size 0: 872
Time for loop of size 0: 879
Time for loop of size 0: 867
Time for loop of size 0: 872
Time for loop of size 0: 875
Time for loop of size 0: 877
Time for loop of size 0: 881
Time for loop of size 0: 877
Time for loop of size 0: 875
Time for loop of size 0: 890
Time for loop of size 0: 871
Time for loop of size 0: 889
Time for loop of size 0: 881
Time for loop of size 0: 889
Time for loop of size 0: 887
Time for loop of size 0: 893
Time for loop of size 0: 890
Time for loop of size 0: 880
Time for loop of size 0: 890
Time for loop of size 0: 888
Time for loop of size 0: 889
Time for loop of size 0: 895
Time for loop of size 0: 893
Time for loop of size 0: 894
Time for loop of size 0: 901
Time for loop of size 0: 901
Time for loop of size 0: 887
Time for loop of size 0: 900
Time for loop of size 0: 896
Time for loop of size 0: 895
Time for loop of size 0: 897
Time for loop of size 0: 902
Time for loop of size 0: 905
Time for loop of size 0: 900
Time for loop of size 0: 916
Time for loop of size 0: 904
Time for loop of size 0: 908
Time for loop of size 0: 906
Time for loop of size 0: 917
Time for loop of size 0: 903
Time for loop of size 0: 920
Time for loop of size 0: 924
Time for loop of size 0: 940
Time for loop of size 0: 927
Time for loop of size 0: 934
Time for loop of size 0: 931
Time for loop of size 0: 903
Time for loop of size 0: 927
Time for loop of size 0: 923
Time for loop of size 0: 932
Time for loop of size 0: 916
Time for loop of size 0: 913
Time for loop of size 0: 926
Time for loop of size 0: 926
Time for loop of size 0: 932
Time for loop of size 0: 922
Time for loop of size 0: 939
Time for loop of size 0: 928
Time for loop of size 0: 931
Time for loop of size 0: 926
Time for loop of size 0: 930
Time for loop of size 0: 931
Time for loop of size 0: 935
Time for loop of size 0: 933
Time for loop of size 0: 932
Time for loop of size 0: 939
Time for loop of size 0: 948
Time for loop of size 0: 936
Time for loop of size 0: 941
Time for loop of size 0: 937
Time for loop of size 0: 935
Time for loop of size 0: 933
Time for loop of size 0: 939
Time for loop of size 0: 939
Time for loop of size 0: 953
Time for loop of size 0: 944
Time for loop of size 0: 950
Time for loop of size 0: 949
Time for loop of size 0: 955
Time for loop of size 0: 954
Time for loop of size 0: 950
Time for loop of size 0: 957
Time for loop of size 0: 967
Time for loop of size 0: 951
Time for loop of size 0: 966
Time for loop of size 0: 960
Time for loop of size 0: 958
Time for loop of size 0: 963
Time for loop of size 0: 957
Time for loop of size 0: 953
Time for loop of size 0: 956
Time for loop of size 0: 969
Time for loop of size 0: 958
Time for loop of size 0: 961
Time for loop of size 0: 971
Time for loop of size 0: 976
Time for loop of size 0: 958
Time for loop of size 0: 961
Time for loop of size 0: 976
Time for loop of size 0: 989
Time for loop of size 0: 968
Time for loop of size 0: 969
Time for loop of size 0: 970
Time for loop of size 0: 975
Time for loop of size 0: 988
Time for loop of size 0: 983
Time for loop of size 0: 973
Time for loop of size 0: 989
Time for loop of size 0: 1009
Time for loop of size 0: 974
Time for loop of size 0: 991
Time for loop of size 0: 979
Time for loop of size 0: 991
Time for loop of size 0: 982
Time for loop of size 0: 986
Time for loop of size 0: 993
Time for loop of size 0: 988
Time for loop of size 0: 995
Time for loop of size 0: 1009
Time for loop of size 0: 989
Time for loop of size 0: 993
Time for loop of size 0: 994
Time for loop of size 0: 989
Time for loop of size 0: 995
Time for loop of size 0: 993
Time for loop of size 0: 1005
Time for loop of size 0: 997
Time for loop of size 0: 1006
Time for loop of size 0: 1003
Time for loop of size 0: 1003
Time for loop of size 0: 1001
Time for loop of size 0: 1007
Time for loop of size 0: 1006
Time for loop of size 0: 1010
Time for loop of size 0: 1023
Time for loop of size 0: 1010
Time for loop of size 0: 999
Time for loop of size 0: 1006
Time for loop of size 0: 1007
Time for loop of size 0: 1014
Time for loop of size 0: 1020
Time for loop of size 0: 1024
Time for loop of size 0: 1019
Time for loop of size 0: 1007
Time for loop of size 0: 1015
Time for loop of size 0: 1014
Time for loop of size 0: 1013
Time for loop of size 0: 1016
Time for loop of size 0: 1018
Time for loop of size 0: 1019
Time for loop of size 0: 1024
Time for loop of size 0: 1024
Time for loop of size 0: 1027
Time for loop of size 0: 1017
Time for loop of size 0: 1033
Time for loop of size 0: 1041
Time for loop of size 0: 1023
Time for loop of size 0: 1034
Time for loop of size 0: 1038
Time for loop of size 0: 1059
Time for loop of size 0: 1035
Time for loop of size 0: 1034
Time for loop of size 0: 1052
Time for loop of size 0: 1051
Time for loop of size 0: 1053
Time for loop of size 0: 1061
Time for loop of size 0: 1051
Time for loop of size 0: 1081
Time for loop of size 0: 1049
Time for loop of size 0: 1053
Time for loop of size 0: 1044
Time for loop of size 0: 1056
Time for loop of size 0: 1048
Time for loop of size 0: 1050
Time for loop of size 0: 1039
Time for loop of size 0: 1062
Time for loop of size 0: 1046
Time for loop of size 0: 1050
Time for loop of size 0: 1051
Time for loop of size 0: 1057
Time for loop of size 0: 1056
Time for loop of size 0: 1050
Time for loop of size 0: 1069
Time for loop of size 0: 1058
Time for loop of size 0: 1054
Time for loop of size 0: 1058
Time for loop of size 0: 1060
Time for loop of size 0: 1057
Time for loop of size 0: 1073
Time for loop of size 0: 1069
Time for loop of size 0: 1060
Time for loop of size 0: 1077
Time for loop of size 0: 1068
Time for loop of size 0: 1078
Time for loop of size 0: 1071
Time for loop of size 0: 1080
Time for loop of size 0: 1073
Time for loop of size 0: 1077
Time for loop of size 0: 1070
Time for loop of size 0: 1087
Time for loop of size 0: 1077
Time for loop of size 0: 1079
Time for loop of size 0: 1085
Time for loop of size 0: 1071
Time for loop of size 0: 1071
Time for loop of size 0: 1087
Time for loop of size 0: 1098
Time for loop of size 0: 1094
Time for loop of size 0: 1078
Time for loop of size 0: 1090
Time for loop of size 0: 1079
Time for loop of size 0: 1095
Time for loop of size 0: 1086
Time for loop of size 0: 1083
Time for loop of size 0: 1088
Time for loop of size 0: 1100
Time for loop of size 0: 1095
Time for loop of size 0: 0
